tb_processor.vcd
$date
	Wed May 11 18:09:14 2022
$end
$version
	Icarus Verilog
$end
$timescale
	1s
$end
$scope module tb_processor $end
$var wire 16 ! regC_out [15:0] $end
$var wire 16 " regB_out [15:0] $end
$var wire 16 # regA_out [15:0] $end
$var wire 16 $ instr_out [15:0] $end
$var wire 14 % cont_out [13:0] $end
$var wire 16 & PC_out [15:0] $end
$var wire 16 ' MDR_out [15:0] $end
$var wire 16 ( ALUOut_out [15:0] $end
$var reg 1 ) PC_rst $end
$var reg 1 * clk $end
$var reg 1 + rst $end
$scope module first_insta $end
$var wire 16 , ALUOut_out [15:0] $end
$var wire 16 - MDR_out [15:0] $end
$var wire 16 . PC_out [15:0] $end
$var wire 1 ) PC_rst $end
$var wire 1 * clk $end
$var wire 16 / instr_out [15:0] $end
$var wire 16 0 regA_out [15:0] $end
$var wire 16 1 regB_out [15:0] $end
$var wire 16 2 regC_out [15:0] $end
$var wire 1 + rst $end
$var wire 2 3 select_to_imm_data [1:0] $end
$var wire 16 4 output_from_PC [15:0] $end
$var wire 16 5 output_from_ALU [15:0] $end
$var wire 16 6 instruction [15:0] $end
$var wire 4 7 input_to_write_reg [3:0] $end
$var wire 16 8 input_to_write_data [15:0] $end
$var wire 16 9 input_to_regC [15:0] $end
$var wire 16 : input_to_regB [15:0] $end
$var wire 16 ; input_to_regA [15:0] $end
$var wire 4 < input_to_read_reg3 [3:0] $end
$var wire 4 = input_to_read_reg1 [3:0] $end
$var wire 16 > input_to_PC_from_ALU [15:0] $end
$var wire 16 ? input_to_ALUSrcB [15:0] $end
$var wire 16 @ input_to_ALUSrcA [15:0] $end
$var wire 16 A extended_imm_data [15:0] $end
$var wire 16 B data [15:0] $end
$var wire 14 C cont_out [13:0] $end
$var wire 1 D RegWrite $end
$var wire 1 E RegDst $end
$var wire 1 F PCWrite $end
$var wire 1 G PCSrc $end
$var wire 1 H PCControl $end
$var wire 1 I MemWrite $end
$var wire 1 J MemRead $end
$var wire 2 K MUX_Control_To_Read_Reg1 [1:0] $end
$var wire 1 L IorD $end
$var wire 1 M IRWrite $end
$var wire 1 N ALUZero $end
$var wire 2 O ALUSrcB [1:0] $end
$var wire 1 P ALUSrcA $end
$var wire 3 Q ALUOp [2:0] $end
$var reg 16 R ALUOut [15:0] $end
$var reg 16 S IR [15:0] $end
$var reg 16 T MDR [15:0] $end
$var reg 16 U reg_A [15:0] $end
$var reg 16 V reg_B [15:0] $end
$var reg 16 W reg_C [15:0] $end
$scope module module10 $end
$var wire 16 X d0 [15:0] $end
$var wire 2 Y s [1:0] $end
$var wire 16 Z d2 [15:0] $end
$var wire 16 [ d1 [15:0] $end
$var reg 16 \ y [15:0] $end
$upscope $end
$scope module module11 $end
$var wire 16 ] inB [15:0] $end
$var wire 16 ^ inA [15:0] $end
$var wire 3 _ ALUOp [2:0] $end
$var reg 16 ` ALUOut [15:0] $end
$var reg 1 N Zero $end
$var reg 4 a func_field [3:0] $end
$var reg 4 b i [3:0] $end
$var reg 4 c shift_amt [3:0] $end
$var reg 16 d temp [15:0] $end
$upscope $end
$scope module module12 $end
$var wire 16 e d0 [15:0] $end
$var wire 16 f d1 [15:0] $end
$var wire 1 G s $end
$var reg 16 g y [15:0] $end
$upscope $end
$scope module module13 $end
$var wire 1 H PC_Write $end
$var wire 16 h address [15:0] $end
$var wire 1 * clk $end
$var wire 1 ) reset $end
$var reg 16 i PC_out [15:0] $end
$upscope $end
$scope module module14 $end
$var wire 1 * clk $end
$var wire 4 j opcode [3:0] $end
$var wire 1 + rst $end
$var reg 3 k ALUOp [2:0] $end
$var reg 1 P ALUSrcA $end
$var reg 2 l ALUSrcB [1:0] $end
$var reg 1 M IRWrite $end
$var reg 1 L IorD $end
$var reg 1 J MemRead $end
$var reg 1 I MemWrite $end
$var reg 1 G PCSrc $end
$var reg 1 F PCWrite $end
$var reg 1 E RegDst $end
$var reg 1 D RegWrite $end
$var reg 4 m next_state [3:0] $end
$var reg 4 n present_state [3:0] $end
$upscope $end
$scope module module15 $end
$var wire 16 o address [15:0] $end
$var wire 1 * clk $end
$var wire 1 J ren $end
$var wire 1 I wen $end
$var wire 16 p din [15:0] $end
$var reg 16 q dout [15:0] $end
$upscope $end
$scope module module2 $end
$var wire 16 r address [15:0] $end
$var wire 1 * clk $end
$var wire 1 J ren $end
$var reg 16 s dout [15:0] $end
$upscope $end
$scope module module3 $end
$var wire 4 t d0 [3:0] $end
$var wire 2 u d1 [1:0] $end
$var wire 4 v d2 [3:0] $end
$var wire 2 w s [1:0] $end
$var reg 4 x y [3:0] $end
$upscope $end
$scope module module4 $end
$var wire 4 y d0 [3:0] $end
$var wire 2 z d1 [1:0] $end
$var wire 1 { s $end
$var reg 4 | y [3:0] $end
$upscope $end
$scope module module5 $end
$var wire 4 } d0 [3:0] $end
$var wire 2 ~ d1 [1:0] $end
$var wire 1 E s $end
$var reg 4 !" y [3:0] $end
$upscope $end
$scope module module6 $end
$var wire 16 "" d0 [15:0] $end
$var wire 16 #" d1 [15:0] $end
$var wire 1 E s $end
$var reg 16 $" y [15:0] $end
$upscope $end
$scope module module7 $end
$var wire 1 * clk $end
$var wire 16 %" dwr [15:0] $end
$var wire 4 &" read1 [3:0] $end
$var wire 4 '" read2 [3:0] $end
$var wire 4 (" read3 [3:0] $end
$var wire 4 )" rwr [3:0] $end
$var wire 1 D wen $end
$var reg 16 *" rd1 [15:0] $end
$var reg 16 +" rd2 [15:0] $end
$var reg 16 ," rd3 [15:0] $end
$upscope $end
$scope module module8 $end
$var wire 16 -" d0 [15:0] $end
$var wire 16 ." d1 [15:0] $end
$var wire 1 P s $end
$var reg 16 /" y [15:0] $end
$upscope $end
$scope module module9 $end
$var wire 8 0" d0 [7:0] $end
$var wire 8 1" d1 [7:0] $end
$var wire 12 2" d2 [11:0] $end
$var wire 2 3" s [1:0] $end
$var reg 16 4" y [15:0] $end
$upscope $end
$upscope $end
$upscope $end
$enddefinitions $end
#0
$dumpvars
bx 4"
bx 3"
bx 2"
bx 1"
bx 0"
bx /"
bx ."
b0 -"
bx ,"
bx +"
bx *"
bx )"
bx ("
bx '"
bx &"
bx %"
bx $"
bx #"
bx ""
bx !"
bx ~
bx }
bx |
x{
bx z
bx y
bx x
bx w
bx v
bx u
bx t
bx s
b0 r
b0zzzzzzzz q
bx p
bx o
bx n
bx m
bx l
bx k
bx j
b0 i
bx h
bx g
bx f
bx e
bx d
bx c
bx b
bx a
bx `
bx _
bx ^
bx ]
bx \
bx [
bx Z
bx Y
bx X
bx W
bx V
bx U
bx T
bx S
bx R
bx Q
xP
bx O
xN
xM
xL
bx K
xJ
xI
xH
xG
xF
xE
xD
bx C
b0zzzzzzzz B
bx A
bx @
bx ?
bx >
bx =
bx <
bx ;
bx :
bx 9
bx 8
bx 7
bx 6
bx 5
b0 4
bx 3
bx 2
bx 1
bx 0
bx /
b0 .
bx -
bx ,
1+
0*
1)
bx (
bx '
b0 &
bx %
bx $
bx #
bx "
bx !
$end
#2
0)
#5
b10 >
b10 g
b10 h
0N
b10 5
b10 `
b10 e
b10 o
b0 b
b0 c
b10 a
b10 ?
b10 \
b10 ]
b0 @
b0 ^
b0 /"
0D
0E
b0 Q
b0 _
b0 k
b1 O
b1 Y
b1 l
0P
1M
0I
1J
0L
0G
b10010100100000 %
b10010100100000 C
1F
b1 m
b0 n
1*
#6
0+
#10
b10 8
b10 $"
b10 %"
b10 (
b10 ,
b10 R
b10 ""
b0zzzzzzzz '
b0zzzzzzzz -
b0zzzzzzzz T
b0zzzzzzzz #"
b111000110001100 B
b111000110001100 q
b1001001110101011 6
b1001001110101011 s
0*
#15
0H
b1011 m
0M
0J
b100000 %
b100000 C
0F
b1 n
1*
#20
b0zzzzzzzz B
b0zzzzzzzz q
b111000110001100 '
b111000110001100 -
b111000110001100 T
b111000110001100 #"
0*
#25
bx >
bx g
bx h
bx 5
bx `
bx e
bx o
bx c
bx a
bx ?
bx \
bx ]
bx @
bx ^
bx /"
b100 Q
b100 _
b100 k
b10 O
b10 Y
b10 l
b11010000 %
b11010000 C
1P
b1100 m
b1011 n
1*
#30
bx 8
bx $"
bx %"
bx (
bx ,
bx R
bx ""
b0zzzzzzzz '
b0zzzzzzzz -
b0zzzzzzzz T
b0zzzzzzzz #"
0*
#35
b0 m
b11010001 %
b11010001 C
1D
b1100 n
1*
#40
0*
#45
b10 >
b10 g
b10 h
xH
b10 5
b10 `
b10 e
b10 o
b0 c
b10 a
b10 ?
b10 \
b10 ]
b0 @
b0 ^
b0 /"
0D
b0 Q
b0 _
b0 k
b1 O
b1 Y
b1 l
0P
1M
1J
b10010100100000 %
b10010100100000 C
1F
b1 m
b0 n
1*
#50
b11 =
b11 x
b11 &"
b0 K
b0 w
b1111111110101011 A
b1111111110101011 Z
b1111111110101011 [
b1111111110101011 4"
b1100 <
b1100 |
b1100 ("
b1 3
b1 3"
1{
b11 7
b11 !"
b11 )"
1H
b10 8
b10 $"
b10 %"
b11 t
b11 u
b1010 v
b11 y
b0 z
b11 }
b0 ~
b1011 '"
b10101011 0"
b10101011 1"
b1110101011 2"
b1001 j
b10 (
b10 ,
b10 R
b10 ""
b1001001110101011 $
b1001001110101011 /
b1001001110101011 S
b111000110001100 B
b111000110001100 q
0*
#51
b0 9
b0 p
b0 ,"
b0 :
b0 +"
b0 ;
b0 *"
#55
0H
0M
0J
b100000 %
b100000 C
0F
b1011 m
b1 n
1*
#60
b0zzzzzzzz B
b0zzzzzzzz q
b0 !
b0 2
b0 W
b0 f
b0 "
b0 1
b0 V
b0 X
b0 #
b0 0
b0 U
b0 ."
b111000110001100 '
b111000110001100 -
b111000110001100 T
b111000110001100 #"
0*
#65
b1111111110101011 >
b1111111110101011 g
b1111111110101011 h
b1111111110101011 5
b1111111110101011 `
b1111111110101011 e
b1111111110101011 o
b1010 c
b1011 a
b1111111110101011 ?
b1111111110101011 \
b1111111110101011 ]
b1100 m
b10 O
b10 Y
b10 l
b11000000 %
b11000000 C
1P
b1011 n
1*
#70
b1111111110101011 8
b1111111110101011 $"
b1111111110101011 %"
b1111111110101011 (
b1111111110101011 ,
b1111111110101011 R
b1111111110101011 ""
b0zzzzzzzz '
b0zzzzzzzz -
b0zzzzzzzz T
b0zzzzzzzz #"
0*
#75
b11000001 %
b11000001 C
1D
b0 m
b1100 n
1*
#80
0*
#81
b1111111110101011 ;
b1111111110101011 *"
#85
b10 >
b10 g
b10 h
b10 5
b10 `
b10 e
b10 o
b0 c
b10 a
1H
b10 ?
b10 \
b10 ]
b1 m
0D
b1 O
b1 Y
b1 l
0P
1M
1J
b10010100100000 %
b10010100100000 C
1F
b0 n
1*
#90
b100 >
b100 g
b100 h
1N
b100 5
b100 `
b100 e
b100 o
b10 @
b10 ^
b10 /"
b10 8
b10 $"
b10 %"
b10 &
b10 .
b10 4
b10 i
b10 r
b10 -"
b1111111110101011 #
b1111111110101011 0
b1111111110101011 U
b1111111110101011 ."
b10 (
b10 ,
b10 R
b10 ""
b111000110001100 B
b111000110001100 q
0*
#95
0H
0M
0J
b100000 %
b100000 C
0F
b1011 m
b1 n
1*
#100
b100 8
b100 $"
b100 %"
b0zzzzzzzz B
b0zzzzzzzz q
b100 (
b100 ,
b100 R
b100 ""
b111000110001100 '
b111000110001100 -
b111000110001100 T
b111000110001100 #"
0*
#105
b1111111101010110 >
b1111111101010110 g
b1111111101010110 h
b1111111101010110 5
b1111111101010110 `
b1111111101010110 e
b1111111101010110 o
b1010 c
b1011 a
b1111111110101011 ?
b1111111110101011 \
b1111111110101011 ]
b1111111110101011 @
b1111111110101011 ^
b1111111110101011 /"
b1100 m
b10 O
b10 Y
b10 l
b11000000 %
b11000000 C
1P
b1011 n
1*
#110
b1111111101010110 8
b1111111101010110 $"
b1111111101010110 %"
b1111111101010110 (
b1111111101010110 ,
b1111111101010110 R
b1111111101010110 ""
b0zzzzzzzz '
b0zzzzzzzz -
b0zzzzzzzz T
b0zzzzzzzz #"
0*
#115
b11000001 %
b11000001 C
1D
b0 m
b1100 n
1*
#120
0*
#121
b1111111101010110 ;
b1111111101010110 *"
#125
b100 >
b100 g
b100 h
b100 5
b100 `
b100 e
b100 o
b0 c
b10 a
1H
b10 ?
b10 \
b10 ]
b10 @
b10 ^
b10 /"
b1 m
0D
b1 O
b1 Y
b1 l
0P
1M
1J
b10010100100000 %
b10010100100000 C
1F
b0 n
1*
#130
b110 >
b110 g
b110 h
0N
b110 5
b110 `
b110 e
b110 o
b100 @
b100 ^
b100 /"
b100 8
b100 $"
b100 %"
b100 &
b100 .
b100 4
b100 i
b100 r
b100 -"
b1111111101010110 #
b1111111101010110 0
b1111111101010110 U
b1111111101010110 ."
b100 (
b100 ,
b100 R
b100 ""
b100011001010000 B
b100011001010000 q
b1001110110010011 6
b1001110110010011 s
0*
#135
0H
0M
0J
b100000 %
b100000 C
0F
b1011 m
b1 n
1*
#140
b110 8
b110 $"
b110 %"
b0zzzzzzzz B
b0zzzzzzzz q
b110 (
b110 ,
b110 R
b110 ""
b100011001010000 '
b100011001010000 -
b100011001010000 T
b100011001010000 #"
0*
#145
b1111111100000001 >
b1111111100000001 g
b1111111100000001 h
b1111111100000001 5
b1111111100000001 `
b1111111100000001 e
b1111111100000001 o
b1010 c
b1011 a
b1111111110101011 ?
b1111111110101011 \
b1111111110101011 ]
b1111111101010110 @
b1111111101010110 ^
b1111111101010110 /"
b1100 m
b10 O
b10 Y
b10 l
b11000000 %
b11000000 C
1P
b1011 n
1*
#150
b1111111100000001 8
b1111111100000001 $"
b1111111100000001 %"
b1111111100000001 (
b1111111100000001 ,
b1111111100000001 R
b1111111100000001 ""
b0zzzzzzzz '
b0zzzzzzzz -
b0zzzzzzzz T
b0zzzzzzzz #"
0*
#155
b11000001 %
b11000001 C
1D
b0 m
b1100 n
1*
#160
0*
#161
b1111111100000001 ;
b1111111100000001 *"
#165
b110 >
b110 g
b110 h
b110 5
b110 `
b110 e
b110 o
b0 c
b10 a
1H
b10 ?
b10 \
b10 ]
b100 @
b100 ^
b100 /"
b1 m
0D
b1 O
b1 Y
b1 l
0P
1M
1J
b10010100100000 %
b10010100100000 C
1F
b0 n
1*
#170
b1000 >
b1000 g
b1000 h
b1000 5
b1000 `
b1000 e
b1000 o
b1101 =
b1101 x
b1101 &"
b1111 <
b1111 |
b1111 ("
b1101 7
b1101 !"
b1101 )"
b1111111110010011 A
b1111111110010011 Z
b1111111110010011 [
b1111111110010011 4"
b110 @
b110 ^
b110 /"
b110 8
b110 $"
b110 %"
b1101 t
b1 u
b1001 v
b1101 y
b11 z
b1101 }
b11 ~
b11 '"
b10010011 0"
b10010011 1"
b110110010011 2"
b110 &
b110 .
b110 4
b110 i
b110 r
b110 -"
b1111111100000001 #
b1111111100000001 0
b1111111100000001 U
b1111111100000001 ."
b110 (
b110 ,
b110 R
b110 ""
b1001110110010011 $
b1001110110010011 /
b1001110110010011 S
b100001100111011 B
b100001100111011 q
b1010111010100010 6
b1010111010100010 s
0*
#171
b1111111100000001 :
b1111111100000001 +"
b0 ;
b0 *"
#175
0H
0M
0J
b100000 %
b100000 C
0F
b1011 m
b1 n
1*
#180
b1000 8
b1000 $"
b1000 %"
b0zzzzzzzz B
b0zzzzzzzz q
b1111111100000001 "
b1111111100000001 1
b1111111100000001 V
b1111111100000001 X
b0 #
b0 0
b0 U
b0 ."
b1000 (
b1000 ,
b1000 R
b1000 ""
b100001100111011 '
b100001100111011 -
b100001100111011 T
b100001100111011 #"
0*
#185
b1111111110010011 >
b1111111110010011 g
b1111111110010011 h
b1111111110010011 5
b1111111110010011 `
b1111111110010011 e
b1111111110010011 o
b1001 c
b11 a
b1111111110010011 ?
b1111111110010011 \
b1111111110010011 ]
b0 @
b0 ^
b0 /"
b1100 m
b10 O
b10 Y
b10 l
b11000000 %
b11000000 C
1P
b1011 n
1*
#190
b1111111110010011 8
b1111111110010011 $"
b1111111110010011 %"
b1111111110010011 (
b1111111110010011 ,
b1111111110010011 R
b1111111110010011 ""
b0zzzzzzzz '
b0zzzzzzzz -
b0zzzzzzzz T
b0zzzzzzzz #"
0*
#195
b11000001 %
b11000001 C
1D
b0 m
b1100 n
1*
#200
0*
#201
b1111111110010011 ;
b1111111110010011 *"
#205
b1000 >
b1000 g
b1000 h
b1000 5
b1000 `
b1000 e
b1000 o
b0 c
b10 a
1H
b10 ?
b10 \
b10 ]
b110 @
b110 ^
b110 /"
b1 m
0D
b1 O
b1 Y
b1 l
0P
1M
1J
b10010100100000 %
b10010100100000 C
1F
b0 n
1*
#210
b1010 >
b1010 g
b1010 h
b0 3
b0 3"
b1010 5
b1010 `
b1010 e
b1010 o
b1110 =
b1110 x
b1110 &"
b1110 7
b1110 !"
b1110 )"
b10100010 A
b10100010 Z
b10100010 [
b10100010 4"
b1000 @
b1000 ^
b1000 /"
b1000 8
b1000 $"
b1000 %"
b1110 t
b10 u
b1010 v
b1110 y
b1110 }
b10 '"
b10100010 0"
b10100010 1"
b111010100010 2"
b1010 j
b1000 &
b1000 .
b1000 4
b1000 i
b1000 r
b1000 -"
b1111111110010011 #
b1111111110010011 0
b1111111110010011 U
b1111111110010011 ."
b1000 (
b1000 ,
b1000 R
b1000 ""
b1010111010100010 $
b1010111010100010 /
b1010111010100010 S
b10000111010011 B
b10000111010011 q
b1100111100100101 6
b1100111100100101 s
0*
#211
b0 :
b0 +"
b0 ;
b0 *"
#215
0H
b1011 m
0M
0J
b100000 %
b100000 C
0F
b1 n
1*
#220
b1010 8
b1010 $"
b1010 %"
b0zzzzzzzz B
b0zzzzzzzz q
b0 "
b0 1
b0 V
b0 X
b0 #
b0 0
b0 U
b0 ."
b1010 (
b1010 ,
b1010 R
b1010 ""
b10000111010011 '
b10000111010011 -
b10000111010011 T
b10000111010011 #"
0*
#225
b10100010 >
b10100010 g
b10100010 h
b10100010 5
b10100010 `
b10100010 e
b10100010 o
b1010 c
b10100010 ?
b10100010 \
b10100010 ]
b0 @
b0 ^
b0 /"
b10 O
b10 Y
b10 l
b11000000 %
b11000000 C
1P
b1100 m
b1011 n
1*
#230
b10100010 8
b10100010 $"
b10100010 %"
b10100010 (
b10100010 ,
b10100010 R
b10100010 ""
b0zzzzzzzz '
b0zzzzzzzz -
b0zzzzzzzz T
b0zzzzzzzz #"
0*
#235
b0 m
b11000001 %
b11000001 C
1D
b1100 n
1*
#240
0*
#241
b10100010 ;
b10100010 *"
#245
b1010 >
b1010 g
b1010 h
b1010 5
b1010 `
b1010 e
b1010 o
b0 c
1H
b10 ?
b10 \
b10 ]
b1000 @
b1000 ^
b1000 /"
0D
b1 O
b1 Y
b1 l
0P
1M
1J
b10010100100000 %
b10010100100000 C
1F
b1 m
b0 n
1*
#250
b10 K
b10 w
b1100 >
b1100 g
b1100 h
b1 3
b1 3"
b1100 5
b1100 `
b1100 e
b1100 o
b10 =
b10 x
b10 &"
0{
b1111 7
b1111 !"
b1111 )"
b100101 A
b100101 Z
b100101 [
b100101 4"
b1010 @
b1010 ^
b1010 /"
b1010 8
b1010 $"
b1010 %"
b1111 t
b11 u
b10 v
b1111 y
b1111 }
b101 '"
b100101 0"
b100101 1"
b111100100101 2"
b1100 j
b1010 &
b1010 .
b1010 4
b1010 i
b1010 r
b1010 -"
b10100010 #
b10100010 0
b10100010 U
b10100010 ."
b1010 (
b1010 ,
b1010 R
b1010 ""
b1100111100100101 $
b1100111100100101 /
b1100111100100101 S
b1110101000010101 B
b1110101000010101 q
b1101101110010011 6
b1101101110010011 s
0*
#251
b0 ;
b0 *"
#255
0H
0M
0J
b100000 %
b100000 C
0F
b101 m
b1 n
1*
#260
b1100 8
b1100 $"
b1100 %"
b0zzzzzzzz B
b0zzzzzzzz q
b0 #
b0 0
b0 U
b0 ."
b1100 (
b1100 ,
b1100 R
b1100 ""
b1110101000010101 '
b1110101000010101 -
b1110101000010101 T
b1110101000010101 #"
0*
#265
b0 >
b0 g
b0 h
1N
b0 5
b0 `
b0 e
b0 o
b0 a
b0 ?
b0 \
b0 ]
b0 @
b0 ^
b0 /"
b110 m
b1 Q
b1 _
b1 k
b0 O
b0 Y
b0 l
b10000100 %
b10000100 C
1P
b101 n
1*
#270
b0 8
b0 $"
b0 %"
b0 (
b0 ,
b0 R
b0 ""
b0zzzzzzzz '
b0zzzzzzzz -
b0zzzzzzzz T
b0zzzzzzzz #"
0*
#275
b10000101 %
b10000101 C
1D
b0 m
b110 n
1*
#280
0*
#285
b1100 >
b1100 g
b1100 h
1H
0N
b1100 5
b1100 `
b1100 e
b1100 o
b10 a
b10 ?
b10 \
b10 ]
b1010 @
b1010 ^
b1010 /"
b1 m
0D
b0 Q
b0 _
b0 k
b1 O
b1 Y
b1 l
0P
1M
1J
b10010100100000 %
b10010100100000 C
1F
b0 n
1*
#290
b0 K
b0 w
b1110 >
b1110 g
b1110 h
b1110 5
b1110 `
b1110 e
b1110 o
b1011 =
b1011 x
b1011 &"
b1011 <
b1011 |
b1011 ("
b1011 7
b1011 !"
b1011 )"
b1111111110010011 A
b1111111110010011 Z
b1111111110010011 [
b1111111110010011 4"
b1100 @
b1100 ^
b1100 /"
b1100 8
b1100 $"
b1100 %"
b1011 t
b1001 v
b1011 y
b10 z
b1011 }
b10 ~
b11 '"
b10010011 0"
b10010011 1"
b101110010011 2"
b1101 j
b1100 &
b1100 .
b1100 4
b1100 i
b1100 r
b1100 -"
b1100 (
b1100 ,
b1100 R
b1100 ""
b1101101110010011 $
b1101101110010011 /
b1101101110010011 S
b1000101001010010 B
b1000101001010010 q
b1110101010100010 6
b1110101010100010 s
0*
#291
b1111111100000001 :
b1111111100000001 +"
#295
0H
b1011 m
0M
0J
b100000 %
b100000 C
0F
b1 n
1*
#300
b1110 8
b1110 $"
b1110 %"
b0zzzzzzzz B
b0zzzzzzzz q
b1111111100000001 "
b1111111100000001 1
b1111111100000001 V
b1111111100000001 X
b1110 (
b1110 ,
b1110 R
b1110 ""
b1000101001010010 '
b1000101001010010 -
b1000101001010010 T
b1000101001010010 #"
0*
#305
b1101101 >
b1101101 g
b1101101 h
b1101101 5
b1101101 `
b1101101 e
b1101101 o
b1001 c
b11 a
b1111111110010011 ?
b1111111110010011 \
b1111111110010011 ]
b0 @
b0 ^
b0 /"
b1 Q
b1 _
b1 k
b10 O
b10 Y
b10 l
b11000100 %
b11000100 C
1P
b1100 m
b1011 n
1*
#310
b1101101 8
b1101101 $"
b1101101 %"
b1101101 (
b1101101 ,
b1101101 R
b1101101 ""
b0zzzzzzzz '
b0zzzzzzzz -
b0zzzzzzzz T
b0zzzzzzzz #"
0*
#315
b0 m
b11000101 %
b11000101 C
1D
b1100 n
1*
#320
0*
#321
b1101101 9
b1101101 p
b1101101 ,"
b1101101 ;
b1101101 *"
#325
b1110 >
b1110 g
b1110 h
1H
b1110 5
b1110 `
b1110 e
b1110 o
b0 c
b10 a
b10 ?
b10 \
b10 ]
b1100 @
b1100 ^
b1100 /"
0D
b0 Q
b0 _
b0 k
b1 O
b1 Y
b1 l
0P
1M
1J
b10010100100000 %
b10010100100000 C
1F
b1 m
b0 n
1*
#330
b10000 >
b10000 g
b10000 h
b0 3
b0 3"
b10000 5
b10000 `
b10000 e
b10000 o
b1010 =
b1010 x
b1010 &"
b1010 <
b1010 |
b1010 ("
b1010 7
b1010 !"
b1010 )"
b10100010 A
b10100010 Z
b10100010 [
b10100010 4"
b1110 @
b1110 ^
b1110 /"
b1110 8
b1110 $"
b1110 %"
b1010 t
b10 u
b1010 v
b1010 y
b1010 }
b10 '"
b10100010 0"
b10100010 1"
b101010100010 2"
b1110 j
b1110 &
b1110 .
b1110 4
b1110 i
b1110 r
b1110 -"
b1101101 !
b1101101 2
b1101101 W
b1101101 f
b1101101 #
b1101101 0
b1101101 U
b1101101 ."
b1110 (
b1110 ,
b1110 R
b1110 ""
b1110101010100010 $
b1110101010100010 /
b1110101010100010 S
b101001110010111 B
b101001110010111 q
b100100110001 6
b100100110001 s
0*
#331
b0 9
b0 p
b0 ,"
b0 :
b0 +"
b0 ;
b0 *"
#335
0H
0M
0J
b100000 %
b100000 C
0F
b1011 m
b1 n
1*
#340
b10000 8
b10000 $"
b10000 %"
b0zzzzzzzz B
b0zzzzzzzz q
b0 !
b0 2
b0 W
b0 f
b0 "
b0 1
b0 V
b0 X
b0 #
b0 0
b0 U
b0 ."
b10000 (
b10000 ,
b10000 R
b10000 ""
b101001110010111 '
b101001110010111 -
b101001110010111 T
b101001110010111 #"
0*
#345
b1111111101011110 >
b1111111101011110 g
b1111111101011110 h
b1111111101011110 5
b1111111101011110 `
b1111111101011110 e
b1111111101011110 o
b1010 c
b10100010 ?
b10100010 \
b10100010 ]
b0 @
b0 ^
b0 /"
b1100 m
b1 Q
b1 _
b1 k
b10 O
b10 Y
b10 l
b11000100 %
b11000100 C
1P
b1011 n
1*
#350
b1111111101011110 8
b1111111101011110 $"
b1111111101011110 %"
b1111111101011110 (
b1111111101011110 ,
b1111111101011110 R
b1111111101011110 ""
b0zzzzzzzz '
b0zzzzzzzz -
b0zzzzzzzz T
b0zzzzzzzz #"
0*
#355
b11000101 %
b11000101 C
1D
b0 m
b1100 n
1*
#360
0*
#361
b1111111101011110 9
b1111111101011110 p
b1111111101011110 ,"
b1111111101011110 ;
b1111111101011110 *"
#365
b10000 >
b10000 g
b10000 h
1H
b10000 5
b10000 `
b10000 e
b10000 o
b0 c
b10 ?
b10 \
b10 ]
b1110 @
b1110 ^
b1110 /"
b1 m
0D
b0 Q
b0 _
b0 k
b1 O
b1 Y
b1 l
0P
1M
1J
b10010100100000 %
b10010100100000 C
1F
b0 n
1*
#370
b0 K
b0 w
b10010 >
b10010 g
b10010 h
b1 3
b1 3"
b10010 5
b10010 `
b10010 e
b10010 o
b1001 =
b1001 x
b1001 &"
1{
b1110 <
b1110 |
b1110 ("
b1001 7
b1001 !"
b1001 )"
b110001 A
b110001 Z
b110001 [
b110001 4"
b10000 @
b10000 ^
b10000 /"
b10000 8
b10000 $"
b10000 %"
b1001 t
b1 u
b11 v
b1001 y
b1001 }
b1 '"
b110001 0"
b110001 1"
b100100110001 2"
b0 j
b10000 &
b10000 .
b10000 4
b10000 i
b10000 r
b10000 -"
b1111111101011110 !
b1111111101011110 2
b1111111101011110 W
b1111111101011110 f
b1111111101011110 #
b1111111101011110 0
b1111111101011110 U
b1111111101011110 ."
b10000 (
b10000 ,
b10000 R
b10000 ""
b100100110001 $
b100100110001 /
b100100110001 S
b1111101010001111 B
b1111101010001111 q
b100000110010 6
b100000110010 s
0*
#371
b10100010 9
b10100010 p
b10100010 ,"
b0 ;
b0 *"
#375
0H
b1011 m
0M
0J
b100000 %
b100000 C
0F
b1 n
1*
#380
b10010 8
b10010 $"
b10010 %"
b0zzzzzzzz B
b0zzzzzzzz q
b10100010 !
b10100010 2
b10100010 W
b10100010 f
b0 #
b0 0
b0 U
b0 ."
b10010 (
b10010 ,
b10010 R
b10010 ""
b1111101010001111 '
b1111101010001111 -
b1111101010001111 T
b1111101010001111 #"
0*
#385
b0 >
b0 g
b0 h
b0 5
b0 `
b0 e
b0 o
b11 b
b0 d
b11 c
b1 a
b110001 ?
b110001 \
b110001 ]
b0 @
b0 ^
b0 /"
b100 Q
b100 _
b100 k
b10 O
b10 Y
b10 l
b11010000 %
b11010000 C
1P
b1100 m
b1011 n
1*
#390
b0 8
b0 $"
b0 %"
b0 (
b0 ,
b0 R
b0 ""
b0zzzzzzzz '
b0zzzzzzzz -
b0zzzzzzzz T
b0zzzzzzzz #"
0*
#395
b0 m
b11010001 %
b11010001 C
1D
b1100 n
1*
#400
0*
#405
b10010 >
b10010 g
b10010 h
1H
b10010 5
b10010 `
b10010 e
b10010 o
b0 b
b0 c
b10 a
b10 ?
b10 \
b10 ]
b10000 @
b10000 ^
b10000 /"
0D
b0 Q
b0 _
b0 k
b1 O
b1 Y
b1 l
0P
1M
1J
b10010100100000 %
b10010100100000 C
1F
b1 m
b0 n
1*
#410
b10100 >
b10100 g
b10100 h
b10100 5
b10100 `
b10100 e
b10100 o
b1000 =
b1000 x
b1000 &"
b1000 7
b1000 !"
b1000 )"
b110010 A
b110010 Z
b110010 [
b110010 4"
b10010 @
b10010 ^
b10010 /"
b10010 8
b10010 $"
b10010 %"
b1000 t
b0 u
b1000 y
b1000 }
b10 '"
b110010 0"
b110010 1"
b100000110010 2"
b10010 &
b10010 .
b10010 4
b10010 i
b10010 r
b10010 -"
b10010 (
b10010 ,
b10010 R
b10010 ""
b100000110010 $
b100000110010 /
b100000110010 S
b10111100010110 B
b10111100010110 q
b11100110011 6
b11100110011 s
0*
#415
0H
b1011 m
0M
0J
b100000 %
b100000 C
0F
b1 n
1*
#420
b10100 8
b10100 $"
b10100 %"
b0zzzzzzzz B
b0zzzzzzzz q
b10100 (
b10100 ,
b10100 R
b10100 ""
b10111100010110 '
b10111100010110 -
b10111100010110 T
b10111100010110 #"
0*
#425
b0 >
b0 g
b0 h
b0 5
b0 `
b0 e
b0 o
b11 b
b11 c
b110010 ?
b110010 \
b110010 ]
b0 @
b0 ^
b0 /"
b100 Q
b100 _
b100 k
b10 O
b10 Y
b10 l
b11010000 %
b11010000 C
1P
b1100 m
b1011 n
1*
#430
b0 8
b0 $"
b0 %"
b0 (
b0 ,
b0 R
b0 ""
b0zzzzzzzz '
b0zzzzzzzz -
b0zzzzzzzz T
b0zzzzzzzz #"
0*
#435
b0 m
b11010001 %
b11010001 C
1D
b1100 n
1*
#440
0*
